
{
    "title":"Hope5",
    "page_name":"Cat Fighte",
    "bannerImage":"C:\\Users\\user name\\Documents\\219\\ePortfolioMaker\\images\\slide_show_images\\ArchesUtah.jpg",
    "layout":"css/Layout 1.css",
    "font":"css/Georgia.css",
    "style":"css/219 Theme.css",
    "links":[
        {
            "link_name":"Cat Fighte",
            "link_path":"Cat Fighte.html",
            "current":"current"
        },
        {
            "link_name":"Dog Fighte",
            "link_path":"Dog Fighte.html",
            "current":"nav"
        }
    ],
    "content":[
        {
            "type":"h",
            "text":"aaaaaa"
        },
        {
            "type":"f",
            "text":"aaaaaaaaaaaaaaaaa"
        }
    ]
}