
{
    "title":"tt",
    "page_name":"new page",
    "bannerImage":"img/OregonTrailNebraska.jpg",
    "layout":"css/Layout 1.css",
    "font":"css/Georgia.css",
    "style":"css/219 Theme.css",
    "links":[
        {
            "link_name":"new page",
            "link_path":"new page.html",
            "current":"current"
        }
    ],
    "bannerText":"tt",
    "content":[
        {
            "type":"i",
            "text":"img/SignalHillNewfoundland.jpg",
            "width":555,
            "height":555,
            "caption":"555",
            "style":"Neither"
        },
        {
            "type":"f",
            "text":""
        }
    ]
}