
{
    "title":"cunt",
    "page_name":"Fat",
    "bannerImage":"img/SaltUtah.jpg",
    "layout":"css/Layout 1.css",
    "font":"css/Georgia.css",
    "style":"css/219 Theme.css",
    "links":[
        {
            "link_name":"Fat",
            "link_path":"Fat.html",
            "current":"current"
        }
    ],
    "bannerText":"cunt",
    "content":[
        {
            "type":"h",
            "text":"fsdfsdfsdf"
        },
        {
            "type":"h",
            "text":"sfsdfsdfsdf"
        },
        {
            "type":"l",
            "text":3,
            "first":"cat",
            "second":"dog",
            "third":"fish"
        },
        {
            "type":"f",
            "text":"dsafsdafsdafsda"
        }
    ]
}