
{
    "title":"aaa",
    "page_name":"sdfsdafasd",
    "bannerImage":"C:\\Users\\user name\\Documents\\219\\ePortfolioMaker\\images\\slide_show_images\\BadlandsSouthDakota.jpg",
    "layout":"css/Layout 1.css",
    "font":"css/Georgia.css",
    "style":"css/219 Theme.css",
    "links":[
        {
            "link_name":"sdfsdafasd",
            "link_path":"sdfsdafasd.html",
            "current":"current"
        }
    ],
    "content":[
        {
            "type":"f",
            "text":""
        }
    ]
}