
{
    "title":"sn",
    "bannerImage":"C:\\Users\\user name\\Documents\\219\\ePortfolioMaker\\images\\slide_show_images\\ArchesUtah.jpg",
    "layout":"p1Layout.css",
    "font":"p1Font.css",
    "style":"p1Style.css",
    "links":[
        {
            "link_name":"Chri",
            "link_path":"Chri.html",
            "current":"current"
        }
    ],
    "content":[
        {
            "type":"h",
            "text":"dsfsdfsdaf"
        },
        {
            "type":"i",
            "text":"C:\\Users\\user name\\Documents\\219\\ePortfolioMaker\\images\\slide_show_images\\YosemiteCalifornia.jpg",
            "width":33,
            "height":44,
            "caption":"dsfsd",
            "style":"Left"
        },
        {
            "type":"f",
            "text":"This is a foote"
        }
    ]
}