
{
    "title":"bb",
    "page_name":"sdfsdfsd",
    "bannerImage":"C:\\Users\\user name\\Documents\\219\\ePortfolioMaker\\images\\slide_show_images\\CapeSpearNewfoundland.jpg",
    "layout":"css/Layout 1.css",
    "font":"css/Georgia.css",
    "style":"css/219 Theme.css",
    "links":[
        {
            "link_name":"sdfsdfsd",
            "link_path":"sdfsdfsd.html",
            "current":"current"
        }
    ],
    "content":[
        {
            "type":"f",
            "text":"sdfsdafsdafsad"
        }
    ]
}