
{
    "title":"noHope",
    "page_name":"aaaaaaaaaaaa",
    "bannerImage":"Choose /n Banner Image",
    "layout":"css/Layout 1.css",
    "font":"css/Georgia.css",
    "style":"css/219 Theme.css",
    "links":[
        {
            "link_name":"aaaaaaaaaaaa",
            "link_path":"aaaaaaaaaaaa.html",
            "current":"current"
        },
        {
            "link_name":"bbbbbbbbbbbbbbbb",
            "link_path":"bbbbbbbbbbbbbbbb.html",
            "current":"nav"
        }
    ],
    "content":[
        {
            "type":"h",
            "text":"aaaaaaaaaaaaaaaaaa"
        },
        {
            "type":"f",
            "text":"aaaaaaaaaaaaaaaaaaaaaaaaaaaaaaaaaaaaaaaaaaaaaaaaaaaaaaaaa"
        }
    ]
}