
{
    "title":"gh",
    "page_name":"new page",
    "bannerImage":"img/SignalHillNewfoundland.jpg",
    "layout":"css/Layout 1.css",
    "font":"css/Georgia.css",
    "style":"css/219 Theme.css",
    "links":[
        {
            "link_name":"new page",
            "link_path":"new page.html",
            "current":"current"
        }
    ],
    "bannerText":"gh",
    "content":[
        {
            "type":"h",
            "text":"dsfadf"
        },
        {
            "type":"f",
            "text":""
        }
    ]
}