
{
    "title":"Test Page",
    "bannerImage":"icons/sbu.png",
    "layout": "css/Layout 1.css",
    "font": "css/Georgia.css",
    "style": "css/219 Theme.css",
    "links":[
      {
            "link_name": "Page 1",
            "link_path": "page1.html",
            "current": "current"
        },
        {
            "link_name": "Page 2",
            "link_path": "page2.html",
            "current": "nav"
        }
    ],
    "bannerText": "Chris's Project!",
    "content":[
        {
            "type": "h",
            "text": "Test Page"
        },
        {
            "type": "p",
            "text": "Lorem ipsum dolor sit <a class = 'inline' href ='https://www.youtube.com/watch?v=YSzOXtXm8p0'>amet</a>, consectetur adipiscing elit. Curabitur tristique maximus est, sed imperdiet lacus placerat vel. Integer euismod ornare malesuada. Etiam at fringilla massa, quis mattis neque. Maecenas elit orci, volutpat vel nunc ac, condimentum varius neque. Pellentesque ornare augue mauris, eu tincidunt nunc dignissim at. Mauris rhoncus rutrum ante ac gravida. Duis quis ante purus. Etiam accumsan, turpis non blandit placerat, dolor nisi tempor neque, a maximus libero arcu id justo. Etiam faucibus pharetra dui, quis sodales ante."
        },
          {
            "type": "p",
            "text": "Ut vitae orci lacus. Ut feugiat ligula libero, at scelerisque augue lacinia non. Vestibulum bibendum lacus ut aliquet tincidunt. Phasellus viverra dapibus feugiat. Nam justo metus, blandit ac tortor eu, finibus semper ipsum. Quisque ultricies consectetur nisi eget rhoncus. Praesent neque risus, hendrerit quis euismod ut, gravida sed eros. Curabitur quis dolor libero. Cum sociis natoque penatibus et magnis dis parturient montes, nascetur ridiculus mus. Maecenas dignissim interdum mauris nec pharetra. Maecenas vel ex congue, venenatis mi at, tristique nisl. Proin vitae ex at magna consequat elementum. Donec id diam enim. Phasellus vitae ante non orci sagittis pellentesque. Nulla tempor laoreet maximus."
        },
          {
            "type": "p",
            "text": "Donec vitae porta risus. Praesent efficitur massa eget dui egestas suscipit. Ut ac sollicitudin dolor, vitae mattis est. Nunc vehicula varius nisl quis ornare. Maecenas vel risus a dui cursus consectetur. Sed vulputate venenatis nibh, interdum bibendum dui euismod vitae. In convallis lorem convallis purus mattis, at molestie urna iaculis. Donec eget ex egestas, suscipit lectus sit amet, vulputate lectus. Etiam viverra tincidunt lacus non cursus."
        },
          {
            "type": "p",
            "text": "Quisque sed aliquet dolor, a rhoncus enim. Pellentesque non faucibus diam. Sed in sollicitudin augue. Curabitur pulvinar mauris urna. Aenean placerat scelerisque dui, ac viverra lacus. Sed viverra leo non vulputate dignissim. Aliquam sit amet enim sollicitudin, tempus magna non, blandit nunc. Quisque vel nisl id dolor tempus faucibus. Integer eget mi dolor."
        },
        {
            "type": "i",
            "text": "icons/ssmicon.png",
            "width": "200",
            "height": "200",
            "style": "float:right"
        },
        {
            "type": "v",
            "text": "videos/No, this is Patrick.mp4",
            "width": "500",
            "height": "300"
        },
        {
            "type": "s",
            "text": "sites/Utah/index.html",
            "width": "1100",
            "height": "750"
        },
        {
            "type": "f",
            "text": "This is a footer. It will be the same on every one of the five pages, and it will contain the ePortfolioMaker logo underneath the footer text",
            "width": "1100",
            "height": "750"
        }
    ],


    "slides":[
        {
            "image_file_name":"ArchesUtah.jpg",
            "image_path":"C:\\Users\\McKillaGorilla\\Documents\\RTM\\StonyBrook\\Courses\\CSE219\\219_2015_Fall\\projects\\SlideShowMakerSolution\\images\\slide_show_images\\",
            "caption":"Arches"
        },
        {
            "image_file_name":"BryceCanyonUtah.jpg",
            "image_path":"C:\\Users\\McKillaGorilla\\Documents\\RTM\\StonyBrook\\Courses\\CSE219\\219_2015_Fall\\projects\\SlideShowMakerSolution\\images\\slide_show_images\\",
            "caption":"Bryce Canyon"
        },
        {
            "image_file_name":"SaltUtah.jpg",
            "image_path":"C:\\Users\\McKillaGorilla\\Documents\\RTM\\StonyBrook\\Courses\\CSE219\\219_2015_Fall\\projects\\SlideShowMakerSolution\\images\\slide_show_images\\",
            "caption":"Salt Flats"
        }
    ]
}